{
	"info": {
		"_postman_id": "47e7ee92-cbca-437f-8c9e-9ebf571814cc",
		"name": "Orders",
		"schema": "https://schema.getpostman.com/json/collection/v2.1.0/collection.json"
	},
	"item": [
		{
			"name": "POST Order",
			"request": {
				"auth": {
					"type": "bearer",
					"bearer": [
						{
							"key": "token",
							"value": "eyJ0eXAiOiJKV1QiLCJhbGciOiJSUzI1NiJ9.eyJhdWQiOiIxIiwianRpIjoiM2U5MDM5NzQ3YmRhOTdiNDY4ZTQxZDAyM2NmNGEzODNhZjEzMGViZjg4NjYzYmI4ZDIwMmI1MmVkOWJiMmE4MzI0MTAxYWI5NDRlNmIzNjEiLCJpYXQiOjE1ODY5NTIxODAsIm5iZiI6MTU4Njk1MjE4MCwiZXhwIjoxNjE4NDg4MTgwLCJzdWIiOiIyNCIsInNjb3BlcyI6W119.V962cC-UqTXt2R1w5rT-ojmcRd_TcDK0UinTNx5gNMpk_ou4XTxf5blIvL7mYaXxWvsCzjZujmdmwFLxV98Y8_WmBIPMLHRBfgGoPbSZ2JZ4ubm7aKx0TH4DFy1KzS_NIz16ZCNR8FAqcTUH0ag0KLclFH9W55FFw2f3JuzzOlOXO3LTQtSaw_YsMWzxgIH61nuac4XneMriEqQy_8LD5oKWd7-OJQNDWi3aazsev44uvSGiEYnf0r2d0m4ba6p9FtSt_Kog3V69x4bFgHJnnm9f_n3WejM9bVPBREYypj6sd076RRjruBkBaJToVaTDL_W4f2BSRygvrDnpOpZfMwRo4UowhpEYW0iowV3Q7KRTbgYHvpqlqH5YKUOLMx73YUYWI6S1QHu7nc8tdVr4juXiVNcHCDj-eFNxgIzWJFfBnd_M4qzdeIUf7GmSuBPhUSLOWc-t16QrstVEeMJAG6XImXgAHdpc-BJ21p25KRzgOK1hPeZ-S_AQsajcuRpcMC_MX2yoBqQ7LWzl7IUMLRNj-gaFTqg2b4YHn1Rh7UVz5YzCtcWb5pB3M0pcLv0T93foMiU5TxxtimuiejQrUFUn31TUgLJeIJ7ZKD02xDoeutrnRf3r42KKNpQCgVdCUY-z1ChHPEynNNiT1zjWraIlTKEz4tVcT7-3LE_peTY",
							"type": "string"
						}
					]
				},
				"method": "POST",
				"header": [],
				"url": {
					"raw": "cut.dev/api/order?vendor_id=1&customer_id=2&product_id[0]=99&product_qty[0]=88&product_price[0]=19.99&product_id[1]=2&product_qty[1]=22&product_price[1]=22.44&booking_id[0]=1&booking_qty[0]=3&booking_price[0]=24.50",
					"host": [
						"cut",
						"dev"
					],
					"path": [
						"api",
						"order"
					],
					"query": [
						{
							"key": "vendor_id",
							"value": "1"
						},
						{
							"key": "customer_id",
							"value": "2"
						},
						{
							"key": "product_id[0]",
							"value": "99"
						},
						{
							"key": "product_qty[0]",
							"value": "88"
						},
						{
							"key": "product_price[0]",
							"value": "19.99"
						},
						{
							"key": "product_id[1]",
							"value": "2"
						},
						{
							"key": "product_qty[1]",
							"value": "22"
						},
						{
							"key": "product_price[1]",
							"value": "22.44"
						},
						{
							"key": "booking_id[0]",
							"value": "1"
						},
						{
							"key": "booking_qty[0]",
							"value": "3"
						},
						{
							"key": "booking_price[0]",
							"value": "24.50"
						}
					]
				}
			},
			"response": []
		},
		{
			"name": "Add Order Item",
			"request": {
				"auth": {
					"type": "bearer",
					"bearer": [
						{
							"key": "token",
							"value": "eyJ0eXAiOiJKV1QiLCJhbGciOiJSUzI1NiJ9.eyJhdWQiOiIxIiwianRpIjoiM2U5MDM5NzQ3YmRhOTdiNDY4ZTQxZDAyM2NmNGEzODNhZjEzMGViZjg4NjYzYmI4ZDIwMmI1MmVkOWJiMmE4MzI0MTAxYWI5NDRlNmIzNjEiLCJpYXQiOjE1ODY5NTIxODAsIm5iZiI6MTU4Njk1MjE4MCwiZXhwIjoxNjE4NDg4MTgwLCJzdWIiOiIyNCIsInNjb3BlcyI6W119.V962cC-UqTXt2R1w5rT-ojmcRd_TcDK0UinTNx5gNMpk_ou4XTxf5blIvL7mYaXxWvsCzjZujmdmwFLxV98Y8_WmBIPMLHRBfgGoPbSZ2JZ4ubm7aKx0TH4DFy1KzS_NIz16ZCNR8FAqcTUH0ag0KLclFH9W55FFw2f3JuzzOlOXO3LTQtSaw_YsMWzxgIH61nuac4XneMriEqQy_8LD5oKWd7-OJQNDWi3aazsev44uvSGiEYnf0r2d0m4ba6p9FtSt_Kog3V69x4bFgHJnnm9f_n3WejM9bVPBREYypj6sd076RRjruBkBaJToVaTDL_W4f2BSRygvrDnpOpZfMwRo4UowhpEYW0iowV3Q7KRTbgYHvpqlqH5YKUOLMx73YUYWI6S1QHu7nc8tdVr4juXiVNcHCDj-eFNxgIzWJFfBnd_M4qzdeIUf7GmSuBPhUSLOWc-t16QrstVEeMJAG6XImXgAHdpc-BJ21p25KRzgOK1hPeZ-S_AQsajcuRpcMC_MX2yoBqQ7LWzl7IUMLRNj-gaFTqg2b4YHn1Rh7UVz5YzCtcWb5pB3M0pcLv0T93foMiU5TxxtimuiejQrUFUn31TUgLJeIJ7ZKD02xDoeutrnRf3r42KKNpQCgVdCUY-z1ChHPEynNNiT1zjWraIlTKEz4tVcT7-3LE_peTY",
							"type": "string"
						}
					]
				},
				"method": "POST",
				"header": [],
				"url": {
					"raw": "cut.dev/api/order/addItem/19?vendor_id=1&customer_id=2&product_id[0]=25&product_qty[0]=222&product_price[0]=19.11",
					"host": [
						"cut",
						"dev"
					],
					"path": [
						"api",
						"order",
						"addItem",
						"19"
					],
					"query": [
						{
							"key": "vendor_id",
							"value": "1"
						},
						{
							"key": "customer_id",
							"value": "2"
						},
						{
							"key": "product_id[0]",
							"value": "25"
						},
						{
							"key": "product_qty[0]",
							"value": "222"
						},
						{
							"key": "product_price[0]",
							"value": "19.11"
						},
						{
							"key": "product_id[1]",
							"value": "2",
							"disabled": true
						},
						{
							"key": "product_qty[1]",
							"value": "999",
							"disabled": true
						},
						{
							"key": "product_price[1]",
							"value": "22.44",
							"disabled": true
						},
						{
							"key": "booking_id[0]",
							"value": "1",
							"disabled": true
						},
						{
							"key": "booking_qty[0]",
							"value": "333",
							"disabled": true
						},
						{
							"key": "booking_price[0]",
							"value": "24.50",
							"disabled": true
						}
					]
				}
			},
			"response": []
		},
		{
			"name": "delete Order and  Items",
			"request": {
				"auth": {
					"type": "bearer",
					"bearer": [
						{
							"key": "token",
							"value": "eyJ0eXAiOiJKV1QiLCJhbGciOiJSUzI1NiJ9.eyJhdWQiOiIxIiwianRpIjoiM2U5MDM5NzQ3YmRhOTdiNDY4ZTQxZDAyM2NmNGEzODNhZjEzMGViZjg4NjYzYmI4ZDIwMmI1MmVkOWJiMmE4MzI0MTAxYWI5NDRlNmIzNjEiLCJpYXQiOjE1ODY5NTIxODAsIm5iZiI6MTU4Njk1MjE4MCwiZXhwIjoxNjE4NDg4MTgwLCJzdWIiOiIyNCIsInNjb3BlcyI6W119.V962cC-UqTXt2R1w5rT-ojmcRd_TcDK0UinTNx5gNMpk_ou4XTxf5blIvL7mYaXxWvsCzjZujmdmwFLxV98Y8_WmBIPMLHRBfgGoPbSZ2JZ4ubm7aKx0TH4DFy1KzS_NIz16ZCNR8FAqcTUH0ag0KLclFH9W55FFw2f3JuzzOlOXO3LTQtSaw_YsMWzxgIH61nuac4XneMriEqQy_8LD5oKWd7-OJQNDWi3aazsev44uvSGiEYnf0r2d0m4ba6p9FtSt_Kog3V69x4bFgHJnnm9f_n3WejM9bVPBREYypj6sd076RRjruBkBaJToVaTDL_W4f2BSRygvrDnpOpZfMwRo4UowhpEYW0iowV3Q7KRTbgYHvpqlqH5YKUOLMx73YUYWI6S1QHu7nc8tdVr4juXiVNcHCDj-eFNxgIzWJFfBnd_M4qzdeIUf7GmSuBPhUSLOWc-t16QrstVEeMJAG6XImXgAHdpc-BJ21p25KRzgOK1hPeZ-S_AQsajcuRpcMC_MX2yoBqQ7LWzl7IUMLRNj-gaFTqg2b4YHn1Rh7UVz5YzCtcWb5pB3M0pcLv0T93foMiU5TxxtimuiejQrUFUn31TUgLJeIJ7ZKD02xDoeutrnRf3r42KKNpQCgVdCUY-z1ChHPEynNNiT1zjWraIlTKEz4tVcT7-3LE_peTY",
							"type": "string"
						}
					]
				},
				"method": "DELETE",
				"header": [],
				"url": {
					"raw": "cut.dev/api/order/19",
					"host": [
						"cut",
						"dev"
					],
					"path": [
						"api",
						"order",
						"19"
					]
				}
			},
			"response": []
		},
		{
			"name": "Delete  Item",
			"request": {
				"auth": {
					"type": "bearer",
					"bearer": [
						{
							"key": "token",
							"value": "eyJ0eXAiOiJKV1QiLCJhbGciOiJSUzI1NiJ9.eyJhdWQiOiIzIiwianRpIjoiODExMzg0NzM5YzEzMmQ4Y2QwZDRiZGQ4ZWE4MzJiYjc1YzRkMzhmMmM2ZDcxN2IxMjVkMTJmMmZlM2YzYWJlYTNlYmM5MzdiZmVjNDkzMGIiLCJpYXQiOjE1ODczODk1MjcsIm5iZiI6MTU4NzM4OTUyNywiZXhwIjoxNjE4OTI1NTI3LCJzdWIiOiIyNCIsInNjb3BlcyI6W119.rjIPoo0Em8XAUhg2xbgW2bsQPV-fCi2z888l370lZzl4Rg6Y4fHoMB05EOljDLhk72Qzk6Rhm26C6cAvFf2NWf6OID227p_6QOeJJk4YQPnMlUf3Pxdz1PY6Vc4P7pWjMxMABm-8GTDV0gQEPDTtHI_jGpiD2AOWrjYtQ5357WV3-tmSfVBR9GdsJk26DklVyVphUaZrDE1vSK-t8pdKbfHKK8ptMiYRmt1zErJDjJqSdZqONvhbz0UsQ7SZ5CcZjPo5JJNOIN4RzkHCXX2m0fnF9aDRC0fzPPr4Z2J4nOSw5Cq69tGJN3KK14TPFU9LgsRmzh8YghBBeLCFItLlijl66rGXgYnWJtSOKylX0PD7ZBQpy7F_tLv-U288ZIJKsdmNblPDBF7FmMlmJCi63q_Ivdntek5s7Z_YrIJ1HRn1Aqe7uTNNzh1QHaLW-oL7wg9eu-JPuUlVwJDAjsq81bSWEm5XmWdElqiqz3MklfL9bfnJaiIc1s8SXrkkGUkwxTjmlQD49LRpraZo9MoBVwZlaoGwscV80nakK9Me_HlU0hlHNTNS9MytBTPEiSYZAxKddHmSr3-kwsHT1gv5EwkbROhKX_T_iYLfHrf0uz-MJyfxwOkTsEmDVtC4zHfTKwLeFzSsB6wQ5bmY88wI8cGvZN0Rk7uyVZHx4KMoszE",
							"type": "string"
						}
					]
				},
				"method": "DELETE",
				"header": [],
				"url": {
					"raw": "cut.dev/api/order/amendItem/product/2",
					"host": [
						"cut",
						"dev"
					],
					"path": [
						"api",
						"order",
						"amendItem",
						"product",
						"2"
					]
				}
			},
			"response": []
		},
		{
			"name": "Amend Order Item",
			"request": {
				"auth": {
					"type": "bearer",
					"bearer": [
						{
							"key": "token",
							"value": "eyJ0eXAiOiJKV1QiLCJhbGciOiJSUzI1NiJ9.eyJhdWQiOiIzIiwianRpIjoiODExMzg0NzM5YzEzMmQ4Y2QwZDRiZGQ4ZWE4MzJiYjc1YzRkMzhmMmM2ZDcxN2IxMjVkMTJmMmZlM2YzYWJlYTNlYmM5MzdiZmVjNDkzMGIiLCJpYXQiOjE1ODczODk1MjcsIm5iZiI6MTU4NzM4OTUyNywiZXhwIjoxNjE4OTI1NTI3LCJzdWIiOiIyNCIsInNjb3BlcyI6W119.rjIPoo0Em8XAUhg2xbgW2bsQPV-fCi2z888l370lZzl4Rg6Y4fHoMB05EOljDLhk72Qzk6Rhm26C6cAvFf2NWf6OID227p_6QOeJJk4YQPnMlUf3Pxdz1PY6Vc4P7pWjMxMABm-8GTDV0gQEPDTtHI_jGpiD2AOWrjYtQ5357WV3-tmSfVBR9GdsJk26DklVyVphUaZrDE1vSK-t8pdKbfHKK8ptMiYRmt1zErJDjJqSdZqONvhbz0UsQ7SZ5CcZjPo5JJNOIN4RzkHCXX2m0fnF9aDRC0fzPPr4Z2J4nOSw5Cq69tGJN3KK14TPFU9LgsRmzh8YghBBeLCFItLlijl66rGXgYnWJtSOKylX0PD7ZBQpy7F_tLv-U288ZIJKsdmNblPDBF7FmMlmJCi63q_Ivdntek5s7Z_YrIJ1HRn1Aqe7uTNNzh1QHaLW-oL7wg9eu-JPuUlVwJDAjsq81bSWEm5XmWdElqiqz3MklfL9bfnJaiIc1s8SXrkkGUkwxTjmlQD49LRpraZo9MoBVwZlaoGwscV80nakK9Me_HlU0hlHNTNS9MytBTPEiSYZAxKddHmSr3-kwsHT1gv5EwkbROhKX_T_iYLfHrf0uz-MJyfxwOkTsEmDVtC4zHfTKwLeFzSsB6wQ5bmY88wI8cGvZN0Rk7uyVZHx4KMoszE",
							"type": "string"
						}
					]
				},
				"method": "PUT",
				"header": [],
				"url": {
					"raw": "cut.dev/api/order/amendItem/3?product_id=99&product_qty=1212&product_price=12.12",
					"host": [
						"cut",
						"dev"
					],
					"path": [
						"api",
						"order",
						"amendItem",
						"3"
					],
					"query": [
						{
							"key": "product_id",
							"value": "99"
						},
						{
							"key": "product_qty",
							"value": "1212"
						},
						{
							"key": "product_price",
							"value": "12.12"
						}
					]
				}
			},
			"response": []
		}
	],
	"protocolProfileBehavior": {}
}